…
Make comparison:

``` r
cv_df = 
  crossv_mc(baby_df, 100)

cv_df %>% pull(train) %>% .[[1]] %>% as_tibble()
```

    ## # A tibble: 3,473 x 20
    ##      bwt babysex bhead blength delwt fincome frace gaweeks malform menarche
    ##    <dbl> <fct>   <dbl>   <dbl> <dbl>   <dbl> <fct>   <dbl> <fct>      <dbl>
    ##  1  3629 2          34      51   177      35 1        39.9 0             13
    ##  2  3062 1          34      48   156      65 2        25.9 0             14
    ##  3  3345 2          36      50   148      85 1        39.9 0             12
    ##  4  3062 1          34      52   157      55 1        40   0             14
    ##  5  3374 2          34      52   156       5 1        41.6 0             13
    ##  6  2523 2          33      46   126      96 2        40.3 0             14
    ##  7  3459 1          33      50   169      75 2        40.7 0             12
    ##  8  3317 2          35      51   130      55 1        43.4 0             13
    ##  9  3459 1          35      51   146      55 1        39.4 0             12
    ## 10  3175 2          35      48   158      75 1        39.7 0             13
    ## # … with 3,463 more rows, and 10 more variables: mheight <dbl>, momage <dbl>,
    ## #   mrace <fct>, parity <dbl>, pnumlbw <dbl>, pnumsga <dbl>, ppbmi <dbl>,
    ## #   ppwt <dbl>, smoken <dbl>, wtgain <dbl>

``` r
cv_df %>% pull(test) %>% .[[1]] %>% as_tibble()
```

    ## # A tibble: 869 x 20
    ##      bwt babysex bhead blength delwt fincome frace gaweeks malform menarche
    ##    <dbl> <fct>   <dbl>   <dbl> <dbl>   <dbl> <fct>   <dbl> <fct>      <dbl>
    ##  1  3374 1          33      52   129      55 1        40.7 0             12
    ##  2  2778 2          33      49   140       5 1        37.4 0             12
    ##  3  3515 1          36      52   146      85 1        40.3 0             11
    ##  4  3629 2          36      52   154      65 1        40.3 0             11
    ##  5  3374 2          35      57   147      45 1        39.6 0             12
    ##  6  3175 1          34      49   148      96 2        39.7 0             10
    ##  7  3629 1          36      52   152      45 1        39.6 0             11
    ##  8  3402 1          36      54   161      95 1        40.1 0             11
    ##  9  3827 2          35      51   130      45 1        41.3 0             12
    ## 10  3799 1          38      53   167      75 1        39.9 0             12
    ## # … with 859 more rows, and 10 more variables: mheight <dbl>, momage <dbl>,
    ## #   mrace <fct>, parity <dbl>, pnumlbw <dbl>, pnumsga <dbl>, ppbmi <dbl>,
    ## #   ppwt <dbl>, smoken <dbl>, wtgain <dbl>
…
